student,result
17054601,47
17666944,62
17568325,71
17866007,51
17568767,61
16274128,50
16902754,69
16918893,59
15321129,41
17448309,58
15248870,43
16448421,54
17672602,63
16086964,74
15033785,63
16953698,66
15701702,54
16471641,59
15876106,51
16778897,85
15379142,48
15027396,78
16617630,59
17019040,55
15276671,93
17565124,48
17728497,50
15009657,76
15541304,46
15521851,50
17193376,84
15981147,60
17186254,82
17670282,63
17206613,55
15903140,74
15340523,43
15408191,58
16896478,63
17092656,42
17963939,58
15688925,31
17921434,48
17483560,60
15800254,67
17043406,66
16414181,64
15820158,48
17708781,71
15018150,47
17905036,55
16798534,74
16224207,33
16750615,69
16352923,56
16688273,80
15180607,47
16857286,80
16098101,42
17655766,54
17316841,62
16369096,56
16286532,61
17438883,63
17827571,58
17600059,48
17963456,60
15478327,24
15558901,44
17255113,87
17556763,79
15629929,42
15820432,55
16207726,59
16642630,69
16287188,20
16870069,59
15554070,92
16442185,72
16994419,67
17566865,54
16703220,84
17836251,67
15653231,46
15754896,65
17785868,90
15837337,46
17358926,42
15628341,36
15038432,57
15587580,58
17671449,72
16282609,67
16549374,74
16853408,76
17741508,49
15880518,62
16378705,54
15628156,53
15554810,60
16463648,63
15217832,60
15364172,61
17154407,69
15980055,60
17695007,71
15000435,56
15933749,59
15872702,82
17740563,43
15146494,52
15914514,82
16621776,61
15953784,57
16778098,73
15651232,58
16358210,48
15167738,55
17719170,55
17513779,72
15058204,56
17768562,67
15307133,54
15259946,61
16845484,52
15270084,32
15869757,34
17098426,99
16274675,61
17977453,89
17448910,52
17327320,62
16212602,37
15745452,70
17690158,73
16482520,41
15115937,56
16200023,61
16291469,63
17952645,61
17943171,59
16860432,50
17618004,68
17801980,62
15848279,78
16005053,58
15592601,48
17001601,72
15270497,31
16513991,59
15063595,54
15553842,42
15625986,53
17323031,65
17073719,68
16836387,44
15910091,50
17032688,79
15731812,51
16037215,55
15489682,56
15294486,64
16021653,66
16465139,41
17876880,70
17203228,86
17556134,55
17407329,50
15819216,54
15501362,65
16142419,69
15432237,58
16196502,46
15371422,58
16760330,48
17380177,68
17395720,63
17523105,58
17375901,74
16587503,59
17563169,65
17965222,65
17687468,69
16238430,41
17946950,47
15992128,79
16807071,55
17926734,67
15547131,62
16290769,51
16988579,60
15535995,64
16768290,59
15321094,57
15866493,70
16593708,59
15184088,50
16206872,45
15224766,56
15800348,70
15395055,56
15708394,43
15273679,68
15745345,64
16520574,53
15947980,76
15518316,47
15165465,74
17074375,50
15284751,65
17400612,42
15443956,72
15351676,57
16147986,54
16991739,66
16506563,63
17065079,62
17109646,60
16731829,59
17775561,56
16545619,63
16087119,63
16926797,83
17320378,62
16719224,54
17526808,71
16463332,85
16299826,62
15378718,59
16992288,53
17920186,59
16146991,49
17569215,61
16833590,72
17554678,81
16546810,61
16626777,62
17368862,44
17276987,68
15491420,55
15449001,56
17307658,70
17634839,63
15393447,51
17783311,65
17534692,73
15777289,64
15847740,74
15494966,66
15976793,54
16684859,61
17440066,52
16686062,85
15558681,65
17136486,48
15460470,72
16919499,61
16987921,56
