student,result
17054601,62
15165465,65
17866007,47
16448421,63
16086964,55
15167738,80
16778897,62
15379142,67
16617630,62
16147986,53
17670282,59
15976793,71
17019040,53
16994419,61
15180607,64
17316841,63
17827571,68
17963456,55
17556763,55
16768290,63
16954361,75
16926797,62
16642630,53
17963939,57
16442185,50
17534692,47
16703220,64
17448309,67
16984179,61
16183567,45
15554810,55
16868967,49
15553842,72
16021653,50
15651232,69
15273679,71
15058204,68
15259946,58
15869757,85
16274675,70
15115937,61
16200023,73
16291469,68
17347992,68
17695007,75
15294486,64
15224766,69
17073719,59
15731812,54
17472756,56
17375901,66
16987921,57
17407329,69
15501362,72
17380177,60
17395720,54
17523105,68
16587503,54
15914514,59
17687468,52
17946950,59
15992128,65
17926734,71
16735842,67
16290769,55
16247839,58
17368862,59
17797065,67
17588402,63
16520574,63
15518316,81
17666944,62
15284751,44
15443956,72
15351676,56
17775561,74
15554070,49
16719224,51
16463332,59
17569215,71
16686062,55
17554678,46
17307658,58
17783311,66
15777289,56
15494966,70
17831717,90
16833590,47
15460470,62
16919499,63
16352923,59
