student,result
15259946,62
17054601,60
17316841,57
15869757,67
16274675,70
17866007,64
17666944,68
17827571,58
17368862,67
16868967,70
16735842,63
15558901,57
17556763,68
16768290,64
16448421,62
16954361,58
16642630,68
17963939,59
16442185,62
17534692,66
15167738,62
15518316,70
16778897,71
15284751,62
17695007,66
17347992,78
17797065,64
15294486,74
15058204,66
17926734,50
15351676,63
16719224,66
16147986,60
17670282,68
16463332,73
15165465,71
15976793,63
15443956,70
15379142,66
17554678,69
15501362,61
17019040,53
15553842,67
17380177,64
17783311,51
15777289,66
16587503,69
17687468,63
15180607,49
16686062,52
17946950,59
16352923,64
